Data • opinAr
…
EJEMPLOS (Examples)

Obtener datos con get_icg_raw() (get data)

get_icg_raw() es la función principal para hacernos de los datos disponibles.

(get_icg_raw() is the main function to get the available data).

library(opinAr)

datos <- get_icg_raw()

datos
#> # A tibble: 248,431 x 29
#>      ola  caso   ano   mes   dia  ciudad    zona  region    sexo    edad     edu
#>    <dbl> <dbl> <dbl> <dbl> <dbl> <dbl+l> <dbl+l> <dbl+l> <dbl+l> <dbl+l> <dbl+l>
#>  1   507     1  2002     4    NA 0 [GBA] 2 [BsA~ 1 [AMB~ 0 [Muj~ 3 [más~ 1 [Pri~
#>  2   507     2  2002     4    NA 0 [GBA] 2 [BsA~ 1 [AMB~ 0 [Muj~ 3 [más~ 3 [Ter~
#>  3   507     3  2002     4    NA 0 [GBA] 2 [BsA~ 1 [AMB~ 0 [Muj~ 2 [30a~ 2 [Sec~
#>  4   507     4  2002     4    NA 0 [GBA] 2 [BsA~ 1 [AMB~ 0 [Muj~ 3 [más~ 1 [Pri~
#>  5   507     5  2002     4    NA 0 [GBA] 2 [BsA~ 1 [AMB~ 0 [Muj~ 2 [30a~ 3 [Ter~
#>  6   507     6  2002     4    NA 0 [GBA] 2 [BsA~ 1 [AMB~ 0 [Muj~ 2 [30a~ 3 [Ter~
#>  7   507     7  2002     4    NA 0 [GBA] 2 [BsA~ 1 [AMB~ 1 [Hom~ 1 [18a~ 3 [Ter~
#>  8   507     8  2002     4    NA 0 [GBA] 2 [BsA~ 1 [AMB~ 1 [Hom~ 3 [más~ 1 [Pri~
#>  9   507     9  2002     4    NA 0 [GBA] 2 [BsA~ 1 [AMB~ 1 [Hom~ 1 [18a~ 2 [Sec~
#> 10   507    10  2002     4    NA 0 [GBA] 2 [BsA~ 1 [AMB~ 0 [Muj~ 2 [30a~ 3 [Ter~
#> # ... with 248,421 more rows, and 18 more variables: educacion <dbl+lbl>,
#> #   sit_ec <dbl+lbl>, sit_fu <dbl+lbl>, sitec <dbl+lbl>, mejora <dbl+lbl>,
#> #   eval_gob <dbl+lbl>, eval_gob_rec <dbl>, benef_gob <dbl+lbl>,
#> #   benef_gob_rec <dbl>, adm_gp <dbl+lbl>, adm_gp_rec <dbl>, cor_gob <dbl+lbl>,
#> #   cor_gob_rec <dbl>, resol_prob <dbl+lbl>, resol_prob_rec <dbl>, icg <dbl>,
#> #   localidad <dbl>, ponderacion_utdt <dbl>
…
Explorar las olas show_waves() (explore waves)

La función show_waves() muestra las olas y el mes y año correspondientes. Por defecto el parámetro viewer = FALSE imprime el resultado en consola. Si en cambio escribimos viewer = TRUE los datos se presentan en el Viewer de RStudio.

(show_waves() function displays the number of waves and the corresponding year and month. By default the parameter viewer = FALSE prints the result in console. If instead we write viewer = TRUE data is presented in the RStudio Viewer).

show_waves(datos)
#> # A tibble: 235 x 3
#>      ola   mes   ano
#>    <dbl> <dbl> <dbl>
#>  1   502    11  2001
#>  2   503    12  2001
#>  3   504     1  2002
#>  4   505     2  2002
#>  5   506     3  2002
#>  6   507     4  2002
#>  7   508     5  2002
#>  8   509     6  2002
#>  9   510     7  2002
#> 10   511     8  2002
#> # ... with 225 more rows
…
